%YAML 1.1
%TAG !u! tag:unity3d.com,2011:
--- !u!29 &1
OcclusionCullingSettings:
  m_ObjectHideFlags: 0
  serializedVersion: 2
  m_OcclusionBakeSettings:
    smallestOccluder: 5
    smallestHole: 0.25
    backfaceThreshold: 100
  m_SceneGUID: 00000000000000000000000000000000
  m_OcclusionCullingData: {fileID: 0}
--- !u!104 &2
RenderSettings:
  m_ObjectHideFlags: 0
  serializedVersion: 9
  m_Fog: 0
  m_FogColor: {r: 0.5, g: 0.5, b: 0.5, a: 1}
  m_FogMode: 3
  m_FogDensity: 0.01
  m_LinearFogStart: 0
  m_LinearFogEnd: 300
  m_AmbientSkyColor: {r: 0.212, g: 0.227, b: 0.259, a: 1}
  m_AmbientEquatorColor: {r: 0.114, g: 0.125, b: 0.133, a: 1}
  m_AmbientGroundColor: {r: 0.047, g: 0.043, b: 0.035, a: 1}
  m_AmbientIntensity: 0.64
  m_AmbientMode: 0
  m_SubtractiveShadowColor: {r: 0.42, g: 0.478, b: 0.627, a: 1}
  m_SkyboxMaterial: {fileID: 10304, guid: 0000000000000000f000000000000000, type: 0}
  m_HaloStrength: 0.5
  m_FlareStrength: 1
  m_FlareFadeSpeed: 3
  m_HaloTexture: {fileID: 0}
  m_SpotCookie: {fileID: 10001, guid: 0000000000000000e000000000000000, type: 0}
  m_DefaultReflectionMode: 0
  m_DefaultReflectionResolution: 256
  m_ReflectionBounces: 1
  m_ReflectionIntensity: 1
  m_CustomReflection: {fileID: 0}
  m_Sun: {fileID: 0}
  m_IndirectSpecularColor: {r: 0, g: 0, b: 0, a: 1}
  m_UseRadianceAmbientProbe: 0
--- !u!157 &3
LightmapSettings:
  m_ObjectHideFlags: 0
  serializedVersion: 12
  m_GIWorkflowMode: 0
  m_GISettings:
    serializedVersion: 2
    m_BounceScale: 1
    m_IndirectOutputScale: 1
    m_AlbedoBoost: 1
    m_EnvironmentLightingMode: 0
    m_EnableBakedLightmaps: 1
    m_EnableRealtimeLightmaps: 1
  m_LightmapEditorSettings:
    serializedVersion: 12
    m_Resolution: 2
    m_BakeResolution: 40
    m_AtlasSize: 1024
    m_AO: 0
    m_AOMaxDistance: 1
    m_CompAOExponent: 1
    m_CompAOExponentDirect: 0
    m_ExtractAmbientOcclusion: 0
    m_Padding: 2
    m_LightmapParameters: {fileID: 0}
    m_LightmapsBakeMode: 1
    m_TextureCompression: 1
    m_FinalGather: 0
    m_FinalGatherFiltering: 1
    m_FinalGatherRayCount: 256
    m_ReflectionCompression: 2
    m_MixedBakeMode: 1
    m_BakeBackend: 0
    m_PVRSampling: 1
    m_PVRDirectSampleCount: 32
    m_PVRSampleCount: 512
    m_PVRBounces: 2
    m_PVREnvironmentSampleCount: 512
    m_PVREnvironmentReferencePointCount: 2048
    m_PVRFilteringMode: 0
    m_PVRDenoiserTypeDirect: 0
    m_PVRDenoiserTypeIndirect: 0
    m_PVRDenoiserTypeAO: 0
    m_PVRFilterTypeDirect: 0
    m_PVRFilterTypeIndirect: 0
    m_PVRFilterTypeAO: 0
    m_PVREnvironmentMIS: 0
    m_PVRCulling: 1
    m_PVRFilteringGaussRadiusDirect: 1
    m_PVRFilteringGaussRadiusIndirect: 5
    m_PVRFilteringGaussRadiusAO: 2
    m_PVRFilteringAtrousPositionSigmaDirect: 0.5
    m_PVRFilteringAtrousPositionSigmaIndirect: 2
    m_PVRFilteringAtrousPositionSigmaAO: 1
    m_ExportTrainingData: 0
    m_TrainingDataDestination: TrainingData
    m_LightProbeSampleCountMultiplier: 4
  m_LightingDataAsset: {fileID: 0}
  m_LightingSettings: {fileID: 4890085278179872738, guid: b81087cf271707748a35cd9b278d4046, type: 2}
--- !u!196 &4
NavMeshSettings:
  serializedVersion: 2
  m_ObjectHideFlags: 0
  m_BuildSettings:
    serializedVersion: 2
    agentTypeID: 0
    agentRadius: 0.5
    agentHeight: 2
    agentSlope: 45
    agentClimb: 0.4
    ledgeDropHeight: 0
    maxJumpAcrossDistance: 0
    minRegionArea: 2
    manualCellSize: 0
    cellSize: 0.16666667
    manualTileSize: 0
    tileSize: 256
    accuratePlacement: 0
    maxJobWorkers: 0
    preserveTilesOutsideBounds: 0
    debug:
      m_Flags: 0
  m_NavMeshData: {fileID: 0}
--- !u!1001 &60261013
PrefabInstance:
  m_ObjectHideFlags: 0
  serializedVersion: 2
  m_Modification:
    m_TransformParent: {fileID: 0}
    m_Modifications:
    - target: {fileID: 4000013950294986, guid: 2ebdc32c603c0f74a8df3ff23c55e8e0, type: 3}
      propertyPath: m_RootOrder
      value: 6
      objectReference: {fileID: 0}
    - target: {fileID: 4000013950294986, guid: 2ebdc32c603c0f74a8df3ff23c55e8e0, type: 3}
      propertyPath: m_LocalPosition.x
      value: -0.29
      objectReference: {fileID: 0}
    - target: {fileID: 4000013950294986, guid: 2ebdc32c603c0f74a8df3ff23c55e8e0, type: 3}
      propertyPath: m_LocalPosition.y
      value: 0
      objectReference: {fileID: 0}
    - target: {fileID: 4000013950294986, guid: 2ebdc32c603c0f74a8df3ff23c55e8e0, type: 3}
      propertyPath: m_LocalPosition.z
      value: -2.87
      objectReference: {fileID: 0}
    - target: {fileID: 4000013950294986, guid: 2ebdc32c603c0f74a8df3ff23c55e8e0, type: 3}
      propertyPath: m_LocalRotation.w
      value: 1
      objectReference: {fileID: 0}
    - target: {fileID: 4000013950294986, guid: 2ebdc32c603c0f74a8df3ff23c55e8e0, type: 3}
      propertyPath: m_LocalRotation.x
      value: 0
      objectReference: {fileID: 0}
    - target: {fileID: 4000013950294986, guid: 2ebdc32c603c0f74a8df3ff23c55e8e0, type: 3}
      propertyPath: m_LocalRotation.y
      value: 0
      objectReference: {fileID: 0}
    - target: {fileID: 4000013950294986, guid: 2ebdc32c603c0f74a8df3ff23c55e8e0, type: 3}
      propertyPath: m_LocalRotation.z
      value: 0
      objectReference: {fileID: 0}
    m_RemovedComponents: []
  m_SourcePrefab: {fileID: 100100000, guid: 2ebdc32c603c0f74a8df3ff23c55e8e0, type: 3}
--- !u!1001 &333169282
PrefabInstance:
  m_ObjectHideFlags: 0
  serializedVersion: 2
  m_Modification:
    m_TransformParent: {fileID: 0}
    m_Modifications:
    - target: {fileID: 4000011162724236, guid: df9c3c7aaeeef154bb7184ad6f179ece, type: 3}
      propertyPath: m_RootOrder
      value: 7
      objectReference: {fileID: 0}
    - target: {fileID: 4000011162724236, guid: df9c3c7aaeeef154bb7184ad6f179ece, type: 3}
      propertyPath: m_LocalPosition.x
      value: 0.28
      objectReference: {fileID: 0}
    - target: {fileID: 4000011162724236, guid: df9c3c7aaeeef154bb7184ad6f179ece, type: 3}
      propertyPath: m_LocalPosition.y
      value: 0
      objectReference: {fileID: 0}
    - target: {fileID: 4000011162724236, guid: df9c3c7aaeeef154bb7184ad6f179ece, type: 3}
      propertyPath: m_LocalPosition.z
      value: -5.99
      objectReference: {fileID: 0}
    - target: {fileID: 4000011162724236, guid: df9c3c7aaeeef154bb7184ad6f179ece, type: 3}
      propertyPath: m_LocalRotation.w
      value: 1
      objectReference: {fileID: 0}
    - target: {fileID: 4000011162724236, guid: df9c3c7aaeeef154bb7184ad6f179ece, type: 3}
      propertyPath: m_LocalRotation.x
      value: 0
      objectReference: {fileID: 0}
    - target: {fileID: 4000011162724236, guid: df9c3c7aaeeef154bb7184ad6f179ece, type: 3}
      propertyPath: m_LocalRotation.y
      value: 0
      objectReference: {fileID: 0}
    - target: {fileID: 4000011162724236, guid: df9c3c7aaeeef154bb7184ad6f179ece, type: 3}
      propertyPath: m_LocalRotation.z
      value: 0
      objectReference: {fileID: 0}
    m_RemovedComponents: []
  m_SourcePrefab: {fileID: 100100000, guid: df9c3c7aaeeef154bb7184ad6f179ece, type: 3}
--- !u!1001 &414614730
PrefabInstance:
  m_ObjectHideFlags: 0
  serializedVersion: 2
  m_Modification:
    m_TransformParent: {fileID: 0}
    m_Modifications:
    - target: {fileID: 4000010402048150, guid: 7bf1a4b26f0d5e7419b64deced1cecd3, type: 3}
      propertyPath: m_LocalRotation.w
      value: 0.29883626
      objectReference: {fileID: 0}
    - target: {fileID: 4000010402048150, guid: 7bf1a4b26f0d5e7419b64deced1cecd3, type: 3}
      propertyPath: m_LocalRotation.x
      value: -0.29883626
      objectReference: {fileID: 0}
    - target: {fileID: 4000010402048150, guid: 7bf1a4b26f0d5e7419b64deced1cecd3, type: 3}
      propertyPath: m_LocalRotation.y
      value: 0.64085644
      objectReference: {fileID: 0}
    - target: {fileID: 4000010402048150, guid: 7bf1a4b26f0d5e7419b64deced1cecd3, type: 3}
      propertyPath: m_LocalRotation.z
      value: 0.64085644
      objectReference: {fileID: 0}
    - target: {fileID: 4000010947026576, guid: 7bf1a4b26f0d5e7419b64deced1cecd3, type: 3}
      propertyPath: m_RootOrder
      value: 3
      objectReference: {fileID: 0}
    - target: {fileID: 4000010947026576, guid: 7bf1a4b26f0d5e7419b64deced1cecd3, type: 3}
      propertyPath: m_LocalPosition.x
      value: -3.592
      objectReference: {fileID: 0}
    - target: {fileID: 4000010947026576, guid: 7bf1a4b26f0d5e7419b64deced1cecd3, type: 3}
      propertyPath: m_LocalPosition.y
      value: 0
      objectReference: {fileID: 0}
    - target: {fileID: 4000010947026576, guid: 7bf1a4b26f0d5e7419b64deced1cecd3, type: 3}
      propertyPath: m_LocalPosition.z
      value: 3.162
      objectReference: {fileID: 0}
    - target: {fileID: 4000010947026576, guid: 7bf1a4b26f0d5e7419b64deced1cecd3, type: 3}
      propertyPath: m_LocalRotation.w
      value: 1
      objectReference: {fileID: 0}
    - target: {fileID: 4000010947026576, guid: 7bf1a4b26f0d5e7419b64deced1cecd3, type: 3}
      propertyPath: m_LocalRotation.x
      value: 0
      objectReference: {fileID: 0}
    - target: {fileID: 4000010947026576, guid: 7bf1a4b26f0d5e7419b64deced1cecd3, type: 3}
      propertyPath: m_LocalRotation.y
      value: 0
      objectReference: {fileID: 0}
    - target: {fileID: 4000010947026576, guid: 7bf1a4b26f0d5e7419b64deced1cecd3, type: 3}
      propertyPath: m_LocalRotation.z
      value: 0
      objectReference: {fileID: 0}
    - target: {fileID: 4000012697572720, guid: 7bf1a4b26f0d5e7419b64deced1cecd3, type: 3}
      propertyPath: m_LocalRotation.w
      value: 0.29883626
      objectReference: {fileID: 0}
    - target: {fileID: 4000012697572720, guid: 7bf1a4b26f0d5e7419b64deced1cecd3, type: 3}
      propertyPath: m_LocalRotation.x
      value: -0.29883626
      objectReference: {fileID: 0}
    - target: {fileID: 4000012697572720, guid: 7bf1a4b26f0d5e7419b64deced1cecd3, type: 3}
      propertyPath: m_LocalRotation.y
      value: 0.64085644
      objectReference: {fileID: 0}
    - target: {fileID: 4000012697572720, guid: 7bf1a4b26f0d5e7419b64deced1cecd3, type: 3}
      propertyPath: m_LocalRotation.z
      value: 0.64085644
      objectReference: {fileID: 0}
    m_RemovedComponents: []
  m_SourcePrefab: {fileID: 100100000, guid: 7bf1a4b26f0d5e7419b64deced1cecd3, type: 3}
--- !u!1001 &508061192
PrefabInstance:
  m_ObjectHideFlags: 0
  serializedVersion: 2
  m_Modification:
    m_TransformParent: {fileID: 0}
    m_Modifications:
    - target: {fileID: 4000012378391202, guid: ecc15abaa2d4963428bdf7fc9eb09410, type: 3}
      propertyPath: m_RootOrder
      value: 9
      objectReference: {fileID: 0}
    - target: {fileID: 4000012378391202, guid: ecc15abaa2d4963428bdf7fc9eb09410, type: 3}
      propertyPath: m_LocalPosition.x
      value: 0
      objectReference: {fileID: 0}
    - target: {fileID: 4000012378391202, guid: ecc15abaa2d4963428bdf7fc9eb09410, type: 3}
      propertyPath: m_LocalPosition.y
      value: 0
      objectReference: {fileID: 0}
    - target: {fileID: 4000012378391202, guid: ecc15abaa2d4963428bdf7fc9eb09410, type: 3}
      propertyPath: m_LocalPosition.z
      value: 0
      objectReference: {fileID: 0}
    - target: {fileID: 4000012378391202, guid: ecc15abaa2d4963428bdf7fc9eb09410, type: 3}
      propertyPath: m_LocalRotation.w
      value: 1
      objectReference: {fileID: 0}
    - target: {fileID: 4000012378391202, guid: ecc15abaa2d4963428bdf7fc9eb09410, type: 3}
      propertyPath: m_LocalRotation.x
      value: 0
      objectReference: {fileID: 0}
    - target: {fileID: 4000012378391202, guid: ecc15abaa2d4963428bdf7fc9eb09410, type: 3}
      propertyPath: m_LocalRotation.y
      value: 0
      objectReference: {fileID: 0}
    - target: {fileID: 4000012378391202, guid: ecc15abaa2d4963428bdf7fc9eb09410, type: 3}
      propertyPath: m_LocalRotation.z
      value: 0
      objectReference: {fileID: 0}
    m_RemovedComponents: []
  m_SourcePrefab: {fileID: 100100000, guid: ecc15abaa2d4963428bdf7fc9eb09410, type: 3}
--- !u!1 &508176738
GameObject:
  m_ObjectHideFlags: 0
  m_CorrespondingSourceObject: {fileID: 0}
  m_PrefabInstance: {fileID: 0}
  m_PrefabAsset: {fileID: 0}
  serializedVersion: 6
  m_Component:
  - component: {fileID: 508176743}
  - component: {fileID: 508176742}
  - component: {fileID: 508176740}
  - component: {fileID: 508176739}
  m_Layer: 0
  m_Name: Main Camera
  m_TagString: MainCamera
  m_Icon: {fileID: 0}
  m_NavMeshLayer: 0
  m_StaticEditorFlags: 0
  m_IsActive: 1
--- !u!81 &508176739
AudioListener:
  m_ObjectHideFlags: 0
  m_CorrespondingSourceObject: {fileID: 0}
  m_PrefabInstance: {fileID: 0}
  m_PrefabAsset: {fileID: 0}
  m_GameObject: {fileID: 508176738}
  m_Enabled: 1
--- !u!124 &508176740
Behaviour:
  m_ObjectHideFlags: 0
  m_CorrespondingSourceObject: {fileID: 0}
  m_PrefabInstance: {fileID: 0}
  m_PrefabAsset: {fileID: 0}
  m_GameObject: {fileID: 508176738}
  m_Enabled: 1
--- !u!20 &508176742
Camera:
  m_ObjectHideFlags: 0
  m_CorrespondingSourceObject: {fileID: 0}
  m_PrefabInstance: {fileID: 0}
  m_PrefabAsset: {fileID: 0}
  m_GameObject: {fileID: 508176738}
  m_Enabled: 1
  serializedVersion: 2
  m_ClearFlags: 1
  m_BackGroundColor: {r: 0.19215687, g: 0.3019608, b: 0.4745098, a: 0}
  m_projectionMatrixMode: 1
  m_GateFitMode: 2
  m_FOVAxisMode: 0
  m_SensorSize: {x: 36, y: 24}
  m_LensShift: {x: 0, y: 0}
  m_FocalLength: 50
  m_NormalizedViewPortRect:
    serializedVersion: 2
    x: 0
    y: 0
    width: 1
    height: 1
  near clip plane: 0.3
  far clip plane: 1000
  field of view: 60
  orthographic: 0
  orthographic size: 5
  m_Depth: -1
  m_CullingMask:
    serializedVersion: 2
    m_Bits: 4294967295
  m_RenderingPath: -1
  m_TargetTexture: {fileID: 0}
  m_TargetDisplay: 0
  m_TargetEye: 3
  m_HDR: 0
  m_AllowMSAA: 1
  m_AllowDynamicResolution: 0
  m_ForceIntoRT: 0
  m_OcclusionCulling: 1
  m_StereoConvergence: 10
  m_StereoSeparation: 0.022
--- !u!4 &508176743
Transform:
  m_ObjectHideFlags: 0
  m_CorrespondingSourceObject: {fileID: 0}
  m_PrefabInstance: {fileID: 0}
  m_PrefabAsset: {fileID: 0}
  m_GameObject: {fileID: 508176738}
  m_LocalRotation: {x: -0.18073933, y: 0.42503354, z: -0.08703326, w: -0.88266927}
  m_LocalPosition: {x: 0.98017097, y: 2.835693, z: 1.9893906}
  m_LocalScale: {x: 1, y: 1, z: 1}
  m_Children: []
  m_Father: {fileID: 0}
  m_RootOrder: 0
  m_LocalEulerAnglesHint: {x: 0, y: 0, z: 0}
--- !u!1001 &524458474
PrefabInstance:
  m_ObjectHideFlags: 0
  serializedVersion: 2
  m_Modification:
    m_TransformParent: {fileID: 0}
    m_Modifications:
    - target: {fileID: 4000013943713070, guid: 377c57e9ef0ee0e46a586ad087ef386b, type: 3}
      propertyPath: m_RootOrder
      value: 8
      objectReference: {fileID: 0}
    - target: {fileID: 4000013943713070, guid: 377c57e9ef0ee0e46a586ad087ef386b, type: 3}
      propertyPath: m_LocalPosition.x
      value: 5.333
      objectReference: {fileID: 0}
    - target: {fileID: 4000013943713070, guid: 377c57e9ef0ee0e46a586ad087ef386b, type: 3}
      propertyPath: m_LocalPosition.y
      value: 0
      objectReference: {fileID: 0}
    - target: {fileID: 4000013943713070, guid: 377c57e9ef0ee0e46a586ad087ef386b, type: 3}
      propertyPath: m_LocalPosition.z
      value: 0.015
      objectReference: {fileID: 0}
    - target: {fileID: 4000013943713070, guid: 377c57e9ef0ee0e46a586ad087ef386b, type: 3}
      propertyPath: m_LocalRotation.w
      value: 1
      objectReference: {fileID: 0}
    - target: {fileID: 4000013943713070, guid: 377c57e9ef0ee0e46a586ad087ef386b, type: 3}
      propertyPath: m_LocalRotation.x
      value: 0
      objectReference: {fileID: 0}
    - target: {fileID: 4000013943713070, guid: 377c57e9ef0ee0e46a586ad087ef386b, type: 3}
      propertyPath: m_LocalRotation.y
      value: 0
      objectReference: {fileID: 0}
    - target: {fileID: 4000013943713070, guid: 377c57e9ef0ee0e46a586ad087ef386b, type: 3}
      propertyPath: m_LocalRotation.z
      value: 0
      objectReference: {fileID: 0}
    m_RemovedComponents: []
  m_SourcePrefab: {fileID: 100100000, guid: 377c57e9ef0ee0e46a586ad087ef386b, type: 3}
--- !u!1001 &663367267
PrefabInstance:
  m_ObjectHideFlags: 0
  serializedVersion: 2
  m_Modification:
    m_TransformParent: {fileID: 0}
    m_Modifications:
    - target: {fileID: 400000, guid: ab339a92fda3d75428fe0a16a2d91d70, type: 3}
      propertyPath: m_RootOrder
      value: 2
      objectReference: {fileID: 0}
    - target: {fileID: 400000, guid: ab339a92fda3d75428fe0a16a2d91d70, type: 3}
      propertyPath: m_LocalPosition.x
      value: -4.6344795
      objectReference: {fileID: 0}
    - target: {fileID: 400000, guid: ab339a92fda3d75428fe0a16a2d91d70, type: 3}
      propertyPath: m_LocalPosition.y
      value: 0
      objectReference: {fileID: 0}
    - target: {fileID: 400000, guid: ab339a92fda3d75428fe0a16a2d91d70, type: 3}
      propertyPath: m_LocalPosition.z
      value: 4.4763327
      objectReference: {fileID: 0}
    - target: {fileID: 400000, guid: ab339a92fda3d75428fe0a16a2d91d70, type: 3}
      propertyPath: m_LocalRotation.w
      value: 0.7071068
      objectReference: {fileID: 0}
    - target: {fileID: 400000, guid: ab339a92fda3d75428fe0a16a2d91d70, type: 3}
      propertyPath: m_LocalRotation.x
      value: -0.7071068
      objectReference: {fileID: 0}
    - target: {fileID: 400000, guid: ab339a92fda3d75428fe0a16a2d91d70, type: 3}
      propertyPath: m_LocalRotation.y
      value: 0
      objectReference: {fileID: 0}
    - target: {fileID: 400000, guid: ab339a92fda3d75428fe0a16a2d91d70, type: 3}
      propertyPath: m_LocalRotation.z
      value: -0
      objectReference: {fileID: 0}
    m_RemovedComponents: []
  m_SourcePrefab: {fileID: 100100000, guid: ab339a92fda3d75428fe0a16a2d91d70, type: 3}
--- !u!1001 &1429508924
PrefabInstance:
  m_ObjectHideFlags: 0
  serializedVersion: 2
  m_Modification:
    m_TransformParent: {fileID: 0}
    m_Modifications:
    - target: {fileID: 4000011191699248, guid: fb4bde335e6d1754f8cd33e1b30a65aa, type: 3}
      propertyPath: m_RootOrder
      value: 4
      objectReference: {fileID: 0}
    - target: {fileID: 4000011191699248, guid: fb4bde335e6d1754f8cd33e1b30a65aa, type: 3}
      propertyPath: m_LocalPosition.x
      value: -6.471
      objectReference: {fileID: 0}
    - target: {fileID: 4000011191699248, guid: fb4bde335e6d1754f8cd33e1b30a65aa, type: 3}
      propertyPath: m_LocalPosition.y
      value: 0
      objectReference: {fileID: 0}
    - target: {fileID: 4000011191699248, guid: fb4bde335e6d1754f8cd33e1b30a65aa, type: 3}
      propertyPath: m_LocalPosition.z
      value: 3.162
      objectReference: {fileID: 0}
    - target: {fileID: 4000011191699248, guid: fb4bde335e6d1754f8cd33e1b30a65aa, type: 3}
      propertyPath: m_LocalRotation.w
      value: 1
      objectReference: {fileID: 0}
    - target: {fileID: 4000011191699248, guid: fb4bde335e6d1754f8cd33e1b30a65aa, type: 3}
      propertyPath: m_LocalRotation.x
      value: 0
      objectReference: {fileID: 0}
    - target: {fileID: 4000011191699248, guid: fb4bde335e6d1754f8cd33e1b30a65aa, type: 3}
      propertyPath: m_LocalRotation.y
      value: 0
      objectReference: {fileID: 0}
    - target: {fileID: 4000011191699248, guid: fb4bde335e6d1754f8cd33e1b30a65aa, type: 3}
      propertyPath: m_LocalRotation.z
      value: 0
      objectReference: {fileID: 0}
    m_RemovedComponents: []
  m_SourcePrefab: {fileID: 100100000, guid: fb4bde335e6d1754f8cd33e1b30a65aa, type: 3}
--- !u!1001 &1588780233
PrefabInstance:
  m_ObjectHideFlags: 0
  serializedVersion: 2
  m_Modification:
    m_TransformParent: {fileID: 0}
    m_Modifications:
    - target: {fileID: 4000011240085458, guid: a52d55d99a7b23e42b2d401f956a3e52, type: 3}
      propertyPath: m_RootOrder
      value: 5
      objectReference: {fileID: 0}
    - target: {fileID: 4000011240085458, guid: a52d55d99a7b23e42b2d401f956a3e52, type: 3}
      propertyPath: m_LocalPosition.x
      value: -0.713
      objectReference: {fileID: 0}
    - target: {fileID: 4000011240085458, guid: a52d55d99a7b23e42b2d401f956a3e52, type: 3}
      propertyPath: m_LocalPosition.y
      value: 0
      objectReference: {fileID: 0}
    - target: {fileID: 4000011240085458, guid: a52d55d99a7b23e42b2d401f956a3e52, type: 3}
      propertyPath: m_LocalPosition.z
      value: 3.162
      objectReference: {fileID: 0}
    - target: {fileID: 4000011240085458, guid: a52d55d99a7b23e42b2d401f956a3e52, type: 3}
      propertyPath: m_LocalRotation.w
      value: 1
      objectReference: {fileID: 0}
    - target: {fileID: 4000011240085458, guid: a52d55d99a7b23e42b2d401f956a3e52, type: 3}
      propertyPath: m_LocalRotation.x
      value: 0
      objectReference: {fileID: 0}
    - target: {fileID: 4000011240085458, guid: a52d55d99a7b23e42b2d401f956a3e52, type: 3}
      propertyPath: m_LocalRotation.y
      value: 0
      objectReference: {fileID: 0}
    - target: {fileID: 4000011240085458, guid: a52d55d99a7b23e42b2d401f956a3e52, type: 3}
      propertyPath: m_LocalRotation.z
      value: 0
      objectReference: {fileID: 0}
    m_RemovedComponents: []
  m_SourcePrefab: {fileID: 100100000, guid: a52d55d99a7b23e42b2d401f956a3e52, type: 3}
--- !u!1 &1863776975
GameObject:
  m_ObjectHideFlags: 0
  m_CorrespondingSourceObject: {fileID: 0}
  m_PrefabInstance: {fileID: 0}
  m_PrefabAsset: {fileID: 0}
  serializedVersion: 6
  m_Component:
  - component: {fileID: 1863776977}
  - component: {fileID: 1863776976}
  m_Layer: 0
  m_Name: Directional Light
  m_TagString: Untagged
  m_Icon: {fileID: 0}
  m_NavMeshLayer: 0
  m_StaticEditorFlags: 0
  m_IsActive: 1
--- !u!108 &1863776976
Light:
  m_ObjectHideFlags: 0
  m_CorrespondingSourceObject: {fileID: 0}
  m_PrefabInstance: {fileID: 0}
  m_PrefabAsset: {fileID: 0}
  m_GameObject: {fileID: 1863776975}
  m_Enabled: 1
  serializedVersion: 10
  m_Type: 1
  m_Shape: 0
  m_Color: {r: 1, g: 0.95686275, b: 0.8392157, a: 1}
  m_Intensity: 1
  m_Range: 10
  m_SpotAngle: 30
  m_InnerSpotAngle: 21.80208
  m_CookieSize: 10
  m_Shadows:
    m_Type: 2
    m_Resolution: -1
    m_CustomResolution: -1
    m_Strength: 1
    m_Bias: 0.05
    m_NormalBias: 0.4
    m_NearPlane: 0.2
    m_CullingMatrixOverride:
      e00: 1
      e01: 0
      e02: 0
      e03: 0
      e10: 0
      e11: 1
      e12: 0
      e13: 0
      e20: 0
      e21: 0
      e22: 1
      e23: 0
      e30: 0
      e31: 0
      e32: 0
      e33: 1
    m_UseCullingMatrixOverride: 0
  m_Cookie: {fileID: 0}
  m_DrawHalo: 0
  m_Flare: {fileID: 0}
  m_RenderMode: 0
  m_CullingMask:
    serializedVersion: 2
    m_Bits: 4294967295
  m_RenderingLayerMask: 1
  m_Lightmapping: 4
  m_LightShadowCasterMode: 0
  m_AreaSize: {x: 1, y: 1}
  m_BounceIntensity: 1
  m_ColorTemperature: 6570
  m_UseColorTemperature: 0
  m_BoundingSphereOverride: {x: 0, y: 0, z: 0, w: 0}
  m_UseBoundingSphereOverride: 0
  m_UseViewFrustumForShadowCasterCull: 1
  m_ShadowRadius: 0
  m_ShadowAngle: 0
--- !u!4 &1863776977
Transform:
  m_ObjectHideFlags: 0
  m_CorrespondingSourceObject: {fileID: 0}
  m_PrefabInstance: {fileID: 0}
  m_PrefabAsset: {fileID: 0}
  m_GameObject: {fileID: 1863776975}
  m_LocalRotation: {x: 0.13333215, y: -0.78476876, z: 0.18117815, w: 0.57752496}
  m_LocalPosition: {x: 1.657995, y: 2.5575788, z: 3.8330953}
  m_LocalScale: {x: 1, y: 1, z: 1}
  m_Children: []
  m_Father: {fileID: 0}
  m_RootOrder: 1
  m_LocalEulerAnglesHint: {x: 26, y: -107.3, z: 0}
